{
  "full_name": "Firstname Lastname",
  "email": "f.last@example.com",
  "project_name": "Nameless",
  "package_name": "{{ cookiecutter.project_name|lower|replace(' ','_')|replace('-','_') }}",
  "repo_name": "python-{{ cookiecutter.package_name }}",
  "project_short_description": "This does \"stuff\"",
  "version": "0.1.0",
  "include_common_ds_libs": "1",
  "incude_ipython_kernel_and_matplotlib": "1"
}
